…
Most sampling takes place in a condensed season of several sampling
days/weeks for just a few months of the year. We thus should probably
think of these as year
averages.

``` r
brd_event %>% mutate(year = year(startDate), month = month(startDate)) %>% count(siteID, plotID, scientificName, year, month, sort = TRUE) 
```

    ## # A tibble: 38,152 x 6
    ##    siteID plotID   scientificName             year month     n
    ##    <chr>  <chr>    <chr>                     <dbl> <dbl> <int>
    ##  1 TEAK   TEAK_031 Passerella iliaca          2019     6    18
    ##  2 TEAK   TEAK_031 Poecile gambeli            2019     6    18
    ##  3 TEAK   TEAK_031 Sitta canadensis           2019     6    18
    ##  4 HEAL   HEAL_006 Passerculus sandwichensis  2019     7    14
    ##  5 HEAL   HEAL_006 Spizelloides arborea       2019     7    14
    ##  6 TEAK   TEAK_031 Contopus cooperi           2019     6    14
    ##  7 TEAK   TEAK_031 Empidonax oberholseri      2019     6    14
    ##  8 TEAK   TEAK_031 Regulus satrapa            2019     6    14
    ##  9 TEAK   TEAK_031 Setophaga coronata         2019     6    12
    ## 10 HEAL   HEAL_006 Acanthis flammea           2019     7    10
    ## # … with 38,142 more rows
…
