…
``` r
richness <- inv %>%
  mutate(year = lubridate::year(collectDate)) %>%
  select(scientificName, year, siteID) %>% 
  distinct() %>%
  count(siteID, year)
richness
```

    ## # A tibble: 139 x 3
    ##    siteID  year     n
    ##    <chr>  <dbl> <int>
    ##  1 ARIK    2014    76
    ##  2 ARIK    2015    66
    ##  3 ARIK    2016   126
    ##  4 ARIK    2017   146
    ##  5 ARIK    2018   142
    ##  6 ARIK    2019    94
    ##  7 BARC    2014    47
    ##  8 BARC    2015    82
    ##  9 BARC    2016   101
    ## 10 BARC    2017    96
    ## # … with 129 more rows
…
