…
2018 doesn’t have a huge spike in number of site-months being reported
though…

``` r
tck_ts %>% count(month, sort = TRUE)
```

    ## # A tibble: 43 x 2
    ##    month          n
    ##    <date>     <int>
    ##  1 2017-07-01    54
    ##  2 2017-06-01    46
    ##  3 2017-08-01    46
    ##  4 2018-06-01    43
    ##  5 2018-07-01    42
    ##  6 2016-08-01    40
    ##  7 2018-05-01    40
    ##  8 2018-08-01    40
    ##  9 2017-05-01    37
    ## 10 2016-06-01    35
    ## # … with 33 more rows
